{
  "type": "service_account",
  "project_id": "consensus-hack2018",
  "private_key_id": "4707153d4adc92707a0bab71675fbd0a2187cc1e",
  "private_key": "-----BEGIN PRIVATE KEY-----\nMIIEvQIBADANBgkqhkiG9w0BAQEFAASCBKcwggSjAgEAAoIBAQCl8LAafvPuGcJP\n38QIfsW32zC6UjmWYcNiHdzzY/B/4juf7PyjR3MjonDkElg5FnaYwZwm01SLE7Ix\nMNX8C3wNxM7Gub2paSR9e+XWFFfMXlnZTWyKjOTv0Ivnxi2NNRF/tNZG+CNnlg4S\n1kMrjIggfN71WA3RF88cLsZfnZaTvd0PE3bbHJCbIKWAieWVVEWgb8Tv+xFyOc/z\nlNgCKZXefIo7DqSgPaVVVxqQ5CHR5bSXvqrwZJt0FbVECmK0DmsFR0iwm7Ga7Zj8\nmMIgEwA2NOWyEk6vaXlDdMobzoCuuUjm1iXIimG93F5Tbv01CzG33vBiHqUgyuVH\nVxWLnSczAgMBAAECggEAEErN14Qgaf+wcswrAJSF0BPeuGRrUAcAOmlpMKJe0geB\nyCVp9pQEy3pe8B2W+N/qO/xCWxODqPYBmE/NqqXsA6QPkzZYV0JB+WoJOlgb+K5I\nzwuJfR7xOVR18AcmoMcVlT7JjQU+4KQ8dIAB70wob1wjPd5r2NwoEwHKq0ebKZ0h\nijLrzSE5soUPQF/HHTpIbYABNUfmlI/LrFCDTC6n0HQL+l4cJK+X+Jycfm3g5v0a\nTMgM5aSwWSTRtbUAJ+4e5+BGFiAdTEemuGa1KkbeMV9D58jHNV0QB5YyGlCbMdJB\nzLUaSQoxX35By3dA+Gpl3RsGifphYYM6wdrxm3QjIQKBgQDYd4zpNDxT724Xx/2X\nFedgkWljHHACeYR7mIQa9TUKv5XdP/thVNq64OwhozERLuRO23coKfYPm/jAdGVI\nksvLevpw7SwFygTzS++9xQO3iFrLhLpP8hkYcTUXpIhvr6yT7SQM3sSt1iSkcX63\n7fmMC3aLVQxjTy+B/6q7uSiuUwKBgQDEPt12/fIMQwgKust3dO0T2uiYKXnB3mAP\nTbW+mC/Dq+gSKKVlCm1VWa2/iUkuuEpfWsBF0ORZ/+RY6RRT9gCbC2q+Prk81qjp\nKgx6a31kPa2mmSKkmYk3UaxDqax0PoJtcUFOPXEujnk7QZnWzmyva7iOjBb/SB+p\n+bmzTcfHoQKBgDgNLNWuCvkJBI7v4EBhEZq1zH43fOGHKcD/SyXX3LY9ycaSrLsV\nR9YgK8TCBxCV/dRVi9NAmlCMaKsc+KUELfUwkOzw3PdaylFdlmSjQUUi76/HXJ8a\n51im58KJfjK9YIilXTJf9Lm2u6JBKTjjTDzxMu79RMnqVTjqRQF6/oe1AoGBAJVk\nTe9hjjtrY9nXLUD4z+mHgf0jxb6h7Hp569r1u5a3bOk17AKpF2Yb6LqgZgec33EL\ngscjKFKjDE/qz0DDSt68qDu/QABiYR9ulSU0YrZGhcUHWmn3P4/PKtYvekrbsyph\nRxeqiliouP01CUmOxwobdNl/J5qaaxBYPNeUZHtBAoGAZUC3X8NEVwh2XBm2oC8N\ncnpINuaNsk0uBl8gnPuNANkbhQAONfCgvGrRVYVuKPXcop7j1RadQwt7XCUWX0NH\n+1LgRFfNVHHOQsQKZK1ICaR/l4MwH/KKLz+zjFa5mVZpOhYqOmYnbVoVm81Oq6Ry\nbyVS4y7CjFS5SZrmCT9MKvE=\n-----END PRIVATE KEY-----\n",
  "client_email": "firebase-adminsdk-hpv7t@consensus-hack2018.iam.gserviceaccount.com",
  "client_id": "101565960625548851333",
  "auth_uri": "https://accounts.google.com/o/oauth2/auth",
  "token_uri": "https://oauth2.googleapis.com/token",
  "auth_provider_x509_cert_url": "https://www.googleapis.com/oauth2/v1/certs",
  "client_x509_cert_url": "https://www.googleapis.com/robot/v1/metadata/x509/firebase-adminsdk-hpv7t%40consensus-hack2018.iam.gserviceaccount.com"
}
